
        ==========     _____ _    _ ____  _____  ______          _____  
        =====         / ____| |  | |  _ \|  __ \|  ____|   /\   |  __ \ 
          =====      | (___ | |  | | |_) | |__) | |__     /  \  | |  | |
            ====      \___ \| |  | |  _ <|  _  /|  __|   / /\ \ | |  | |
              ====    ____) | |__| | |_) | | \ \| |____ / ____ \| |__| |
        ==========   |_____/ \____/|____/|_|  \_\______/_/    \_\_____/
	  v1.5.2

//========================== featureCounts setting ===========================\\
||                                                                            ||
||             Input files : 36 BAM files                                     ||
||                           P SRR1171888.bam                                 ||
||                           P SRR1171890.bam                                 ||
||                           P SRR1171891.bam                                 ||
||                           P SRR1171892.bam                                 ||
||                           P SRR1171894.bam                                 ||
||                           P SRR1171895.bam                                 ||
||                           P SRR1171897.bam                                 ||
||                           P SRR1171899.bam                                 ||
||                           P SRR1171901.bam                                 ||
||                           P SRR1171920.bam                                 ||
||                           P SRR1171922.bam                                 ||
||                           P SRR1171923.bam                                 ||
||                           P SRR1171925.bam                                 ||
||                           P SRR1171926.bam                                 ||
||                           P SRR1171927.bam                                 ||
||                           P SRR1171928.bam                                 ||
||                           P SRR1171929.bam                                 ||
||                           P SRR1171931.bam                                 ||
||                           P SRR1171932.bam                                 ||
||                           P SRR1171933.bam                                 ||
||                           P SRR1171948.bam                                 ||
||                           P SRR1171949.bam                                 ||
||                           P SRR1171950.bam                                 ||
||                           P SRR1171951.bam                                 ||
||                           P SRR1171954.bam                                 ||
||                           P SRR1171955.bam                                 ||
||                           P SRR1171956.bam                                 ||
||                           P SRR1171957.bam                                 ||
||                           P SRR1171959.bam                                 ||
||                           P SRR1171970.bam                                 ||
||                           P SRR1171971.bam                                 ||
||                           P SRR1171972.bam                                 ||
||                           P SRR1171973.bam                                 ||
||                           P SRR1171974.bam                                 ||
||                           P SRR1171975.bam                                 ||
||                           P SRR1171977.bam                                 ||
||                                                                            ||
||             Output file : counts_sm.txt                                    ||
||                 Summary : counts_sm.txt.summary                            ||
||              Annotation : /users/aloraine/src/camelina/GeneRegions/res ... ||
||      Dir for temp files : ./                                               ||
||                                                                            ||
||                 Threads : 1                                                ||
||                   Level : meta-feature level                               ||
||              Paired-end : yes                                              ||
||         Strand specific : no                                               ||
||      Multimapping reads : not counted                                      ||
|| Multi-overlapping reads : counted                                          ||
||   Min overlapping bases : 1                                                ||
||                                                                            ||
||          Chimeric reads : not counted                                      ||
||        Both ends mapped : not required                                     ||
||                                                                            ||
\\===================== http://subread.sourceforge.net/ ======================//

//================================= Running ==================================\\
||                                                                            ||
|| Load annotation file /users/aloraine/src/camelina/GeneRegions/results/ ... ||
||    Features : 89418                                                        ||
||    Meta-features : 89418                                                   ||
||    Chromosomes/contigs : 3504                                              ||
||                                                                            ||
|| Process BAM file SRR1171888.bam...                                         ||
||    Paired-end reads are included.                                          ||
||    Assign fragments (read pairs) to features...                            ||
||                                                                            ||
||    WARNING: reads from the same pair were found not adjacent to each       ||
||             other in the input (due to read sorting by location or         ||
||             reporting of multi-mapping read pairs).                        ||
||                                                                            ||
||    Read re-ordering is performed.                                          ||
||                                                                            ||
||    Total fragments : 45697912                                              ||
||    Successfully assigned fragments : 11144981 (24.4%)                      ||
||    Running time : 6.53 minutes                                             ||
||                                                                            ||
|| Process BAM file SRR1171890.bam...                                         ||
||    Paired-end reads are included.                                          ||
||    Assign fragments (read pairs) to features...                            ||
||                                                                            ||
||    WARNING: reads from the same pair were found not adjacent to each       ||
||             other in the input (due to read sorting by location or         ||
||             reporting of multi-mapping read pairs).                        ||
||                                                                            ||
||    Read re-ordering is performed.                                          ||
||                                                                            ||
||    Total fragments : 88377582                                              ||
||    Successfully assigned fragments : 19594267 (22.2%)                      ||
||    Running time : 14.95 minutes                                            ||
||                                                                            ||
|| Process BAM file SRR1171891.bam...                                         ||
||    Paired-end reads are included.                                          ||
||    Assign fragments (read pairs) to features...                            ||
||                                                                            ||
||    WARNING: reads from the same pair were found not adjacent to each       ||
||             other in the input (due to read sorting by location or         ||
||             reporting of multi-mapping read pairs).                        ||
||                                                                            ||
||    Read re-ordering is performed.                                          ||
||                                                                            ||
||    Total fragments : 4868902                                               ||
||    Successfully assigned fragments : 851720 (17.5%)                        ||
||    Running time : 0.66 minutes                                             ||
||                                                                            ||
|| Process BAM file SRR1171892.bam...                                         ||
||    Paired-end reads are included.                                          ||
||    Assign fragments (read pairs) to features...                            ||
||                                                                            ||
||    WARNING: reads from the same pair were found not adjacent to each       ||
||             other in the input (due to read sorting by location or         ||
||             reporting of multi-mapping read pairs).                        ||
||                                                                            ||
||    Read re-ordering is performed.                                          ||
||                                                                            ||
||    Total fragments : 10566511                                              ||
||    Successfully assigned fragments : 5892153 (55.8%)                       ||
||    Running time : 1.22 minutes                                             ||
||                                                                            ||
|| Process BAM file SRR1171894.bam...                                         ||
||    Paired-end reads are included.                                          ||
||    Assign fragments (read pairs) to features...                            ||
||                                                                            ||
||    WARNING: reads from the same pair were found not adjacent to each       ||
||             other in the input (due to read sorting by location or         ||
||             reporting of multi-mapping read pairs).                        ||
||                                                                            ||
||    Read re-ordering is performed.                                          ||
||                                                                            ||
||    Total fragments : 16344509                                              ||
||    Successfully assigned fragments : 8756035 (53.6%)                       ||
||    Running time : 2.14 minutes                                             ||
||                                                                            ||
|| Process BAM file SRR1171895.bam...                                         ||
||    Paired-end reads are included.                                          ||
||    Assign fragments (read pairs) to features...                            ||
||                                                                            ||
||    WARNING: reads from the same pair were found not adjacent to each       ||
||             other in the input (due to read sorting by location or         ||
||             reporting of multi-mapping read pairs).                        ||
||                                                                            ||
||    Read re-ordering is performed.                                          ||
||                                                                            ||
||    Total fragments : 46291468                                              ||
||    Successfully assigned fragments : 24726448 (53.4%)                      ||
||    Running time : 2.62 minutes                                             ||
||                                                                            ||
|| Process BAM file SRR1171897.bam...                                         ||
||    Paired-end reads are included.                                          ||
||    Assign fragments (read pairs) to features...                            ||
||                                                                            ||
||    WARNING: reads from the same pair were found not adjacent to each       ||
||             other in the input (due to read sorting by location or         ||
||             reporting of multi-mapping read pairs).                        ||
||                                                                            ||
||    Read re-ordering is performed.                                          ||
||                                                                            ||
||    Total fragments : 9999339                                               ||
||    Successfully assigned fragments : 4931151 (49.3%)                       ||
||    Running time : 1.08 minutes                                             ||
||                                                                            ||
|| Process BAM file SRR1171899.bam...                                         ||
||    Paired-end reads are included.                                          ||
||    Assign fragments (read pairs) to features...                            ||
||                                                                            ||
||    WARNING: reads from the same pair were found not adjacent to each       ||
||             other in the input (due to read sorting by location or         ||
||             reporting of multi-mapping read pairs).                        ||
||                                                                            ||
||    Read re-ordering is performed.                                          ||
||                                                                            ||
||    Total fragments : 9471124                                               ||
||    Successfully assigned fragments : 5123791 (54.1%)                       ||
||    Running time : 1.60 minutes                                             ||
||                                                                            ||
|| Process BAM file SRR1171901.bam...                                         ||
||    Paired-end reads are included.                                          ||
||    Assign fragments (read pairs) to features...                            ||
||                                                                            ||
||    WARNING: reads from the same pair were found not adjacent to each       ||
||             other in the input (due to read sorting by location or         ||
||             reporting of multi-mapping read pairs).                        ||
||                                                                            ||
||    Read re-ordering is performed.                                          ||
||                                                                            ||
||    Total fragments : 21925163                                              ||
||    Successfully assigned fragments : 11156722 (50.9%)                      ||
||    Running time : 2.04 minutes                                             ||
||                                                                            ||
|| Process BAM file SRR1171920.bam...                                         ||
||    Paired-end reads are included.                                          ||
||    Assign fragments (read pairs) to features...                            ||
||                                                                            ||
||    WARNING: reads from the same pair were found not adjacent to each       ||
||             other in the input (due to read sorting by location or         ||
||             reporting of multi-mapping read pairs).                        ||
||                                                                            ||
||    Read re-ordering is performed.                                          ||
||                                                                            ||
||    Total fragments : 5933147                                               ||
||    Successfully assigned fragments : 3294893 (55.5%)                       ||
||    Running time : 0.45 minutes                                             ||
||                                                                            ||
|| Process BAM file SRR1171922.bam...                                         ||
||    Paired-end reads are included.                                          ||
||    Assign fragments (read pairs) to features...                            ||
||                                                                            ||
||    WARNING: reads from the same pair were found not adjacent to each       ||
||             other in the input (due to read sorting by location or         ||
||             reporting of multi-mapping read pairs).                        ||
||                                                                            ||
||    Read re-ordering is performed.                                          ||
||                                                                            ||
||    Total fragments : 13142305                                              ||
||    Successfully assigned fragments : 6977176 (53.1%)                       ||
||    Running time : 1.14 minutes                                             ||
||                                                                            ||
|| Process BAM file SRR1171923.bam...                                         ||
||    Paired-end reads are included.                                          ||
||    Assign fragments (read pairs) to features...                            ||
||                                                                            ||
||    WARNING: reads from the same pair were found not adjacent to each       ||
||             other in the input (due to read sorting by location or         ||
||             reporting of multi-mapping read pairs).                        ||
||                                                                            ||
||    Read re-ordering is performed.                                          ||
||                                                                            ||
||    Total fragments : 10458850                                              ||
||    Successfully assigned fragments : 5523175 (52.8%)                       ||
||    Running time : 1.09 minutes                                             ||
||                                                                            ||
|| Process BAM file SRR1171925.bam...                                         ||
||    Paired-end reads are included.                                          ||
||    Assign fragments (read pairs) to features...                            ||
||                                                                            ||
||    WARNING: reads from the same pair were found not adjacent to each       ||
||             other in the input (due to read sorting by location or         ||
||             reporting of multi-mapping read pairs).                        ||
||                                                                            ||
||    Read re-ordering is performed.                                          ||
||                                                                            ||
||    Total fragments : 16922871                                              ||
||    Successfully assigned fragments : 9670338 (57.1%)                       ||
||    Running time : 2.21 minutes                                             ||
||                                                                            ||
|| Process BAM file SRR1171926.bam...                                         ||
||    Paired-end reads are included.                                          ||
||    Assign fragments (read pairs) to features...                            ||
||                                                                            ||
||    WARNING: reads from the same pair were found not adjacent to each       ||
||             other in the input (due to read sorting by location or         ||
||             reporting of multi-mapping read pairs).                        ||
||                                                                            ||
||    Read re-ordering is performed.                                          ||
||                                                                            ||
||    Total fragments : 12411291                                              ||
||    Successfully assigned fragments : 6954889 (56.0%)                       ||
||    Running time : 0.67 minutes                                             ||
||                                                                            ||
|| Process BAM file SRR1171927.bam...                                         ||
||    Paired-end reads are included.                                          ||
||    Assign fragments (read pairs) to features...                            ||
||                                                                            ||
||    WARNING: reads from the same pair were found not adjacent to each       ||
||             other in the input (due to read sorting by location or         ||
||             reporting of multi-mapping read pairs).                        ||
||                                                                            ||
||    Read re-ordering is performed.                                          ||
||                                                                            ||
||    Total fragments : 15837934                                              ||
||    Successfully assigned fragments : 7945150 (50.2%)                       ||
||    Running time : 1.52 minutes                                             ||
||                                                                            ||
|| Process BAM file SRR1171928.bam...                                         ||
||    Paired-end reads are included.                                          ||
||    Assign fragments (read pairs) to features...                            ||
||                                                                            ||
||    WARNING: reads from the same pair were found not adjacent to each       ||
||             other in the input (due to read sorting by location or         ||
||             reporting of multi-mapping read pairs).                        ||
||                                                                            ||
||    Read re-ordering is performed.                                          ||
||                                                                            ||
||    Total fragments : 20641591                                              ||
||    Successfully assigned fragments : 11161818 (54.1%)                      ||
||    Running time : 2.18 minutes                                             ||
||                                                                            ||
|| Process BAM file SRR1171929.bam...                                         ||
||    Paired-end reads are included.                                          ||
||    Assign fragments (read pairs) to features...                            ||
||                                                                            ||
||    WARNING: reads from the same pair were found not adjacent to each       ||
||             other in the input (due to read sorting by location or         ||
||             reporting of multi-mapping read pairs).                        ||
||                                                                            ||
||    Read re-ordering is performed.                                          ||
||                                                                            ||
||    Total fragments : 18767906                                              ||
||    Successfully assigned fragments : 10047400 (53.5%)                      ||
||    Running time : 1.89 minutes                                             ||
||                                                                            ||
|| Process BAM file SRR1171931.bam...                                         ||
||    Paired-end reads are included.                                          ||
||    Assign fragments (read pairs) to features...                            ||
||                                                                            ||
||    WARNING: reads from the same pair were found not adjacent to each       ||
||             other in the input (due to read sorting by location or         ||
||             reporting of multi-mapping read pairs).                        ||
||                                                                            ||
||    Read re-ordering is performed.                                          ||
||                                                                            ||
||    Total fragments : 18101932                                              ||
||    Successfully assigned fragments : 10536868 (58.2%)                      ||
||    Running time : 0.96 minutes                                             ||
||                                                                            ||
|| Process BAM file SRR1171932.bam...                                         ||
||    Paired-end reads are included.                                          ||
||    Assign fragments (read pairs) to features...                            ||
||                                                                            ||
||    WARNING: reads from the same pair were found not adjacent to each       ||
||             other in the input (due to read sorting by location or         ||
||             reporting of multi-mapping read pairs).                        ||
||                                                                            ||
||    Read re-ordering is performed.                                          ||
||                                                                            ||
||    Total fragments : 5759207                                               ||
||    Successfully assigned fragments : 3209310 (55.7%)                       ||
||    Running time : 0.33 minutes                                             ||
||                                                                            ||
|| Process BAM file SRR1171933.bam...                                         ||
||    Paired-end reads are included.                                          ||
||    Assign fragments (read pairs) to features...                            ||
||                                                                            ||
||    WARNING: reads from the same pair were found not adjacent to each       ||
||             other in the input (due to read sorting by location or         ||
||             reporting of multi-mapping read pairs).                        ||
||                                                                            ||
||    Read re-ordering is performed.                                          ||
||                                                                            ||
||    Total fragments : 4606131                                               ||
||    Successfully assigned fragments : 2565025 (55.7%)                       ||
||    Running time : 0.78 minutes                                             ||
||                                                                            ||
|| Process BAM file SRR1171948.bam...                                         ||
||    Paired-end reads are included.                                          ||
||    Assign fragments (read pairs) to features...                            ||
||                                                                            ||
||    WARNING: reads from the same pair were found not adjacent to each       ||
||             other in the input (due to read sorting by location or         ||
||             reporting of multi-mapping read pairs).                        ||
||                                                                            ||
||    Read re-ordering is performed.                                          ||
||                                                                            ||
||    Total fragments : 12861334                                              ||
||    Successfully assigned fragments : 7213664 (56.1%)                       ||
||    Running time : 1.32 minutes                                             ||
||                                                                            ||
|| Process BAM file SRR1171949.bam...                                         ||
||    Paired-end reads are included.                                          ||
||    Assign fragments (read pairs) to features...                            ||
||                                                                            ||
||    WARNING: reads from the same pair were found not adjacent to each       ||
||             other in the input (due to read sorting by location or         ||
||             reporting of multi-mapping read pairs).                        ||
||                                                                            ||
||    Read re-ordering is performed.                                          ||
||                                                                            ||
||    Total fragments : 4068990                                               ||
||    Successfully assigned fragments : 2349303 (57.7%)                       ||
||    Running time : 0.48 minutes                                             ||
||                                                                            ||
|| Process BAM file SRR1171950.bam...                                         ||
||    Paired-end reads are included.                                          ||
||    Assign fragments (read pairs) to features...                            ||
||                                                                            ||
||    WARNING: reads from the same pair were found not adjacent to each       ||
||             other in the input (due to read sorting by location or         ||
||             reporting of multi-mapping read pairs).                        ||
||                                                                            ||
||    Read re-ordering is performed.                                          ||
||                                                                            ||
||    Total fragments : 9074917                                               ||
||    Successfully assigned fragments : 5162041 (56.9%)                       ||
||    Running time : 0.49 minutes                                             ||
||                                                                            ||
|| Process BAM file SRR1171951.bam...                                         ||
||    Paired-end reads are included.                                          ||
||    Assign fragments (read pairs) to features...                            ||
||                                                                            ||
||    WARNING: reads from the same pair were found not adjacent to each       ||
||             other in the input (due to read sorting by location or         ||
||             reporting of multi-mapping read pairs).                        ||
||                                                                            ||
||    Read re-ordering is performed.                                          ||
||                                                                            ||
||    Total fragments : 16443156                                              ||
||    Successfully assigned fragments : 9594119 (58.3%)                       ||
||    Running time : 1.82 minutes                                             ||
||                                                                            ||
|| Process BAM file SRR1171954.bam...                                         ||
||    Paired-end reads are included.                                          ||
||    Assign fragments (read pairs) to features...                            ||
||                                                                            ||
||    WARNING: reads from the same pair were found not adjacent to each       ||
||             other in the input (due to read sorting by location or         ||
||             reporting of multi-mapping read pairs).                        ||
||                                                                            ||
||    Read re-ordering is performed.                                          ||
||                                                                            ||
||    Total fragments : 12122784                                              ||
||    Successfully assigned fragments : 6083001 (50.2%)                       ||
||    Running time : 0.97 minutes                                             ||
||                                                                            ||
|| Process BAM file SRR1171955.bam...                                         ||
||    Paired-end reads are included.                                          ||
||    Assign fragments (read pairs) to features...                            ||
||                                                                            ||
||    WARNING: reads from the same pair were found not adjacent to each       ||
||             other in the input (due to read sorting by location or         ||
||             reporting of multi-mapping read pairs).                        ||
||                                                                            ||
||    Read re-ordering is performed.                                          ||
||                                                                            ||
||    Total fragments : 13208697                                              ||
||    Successfully assigned fragments : 4888276 (37.0%)                       ||
||    Running time : 1.32 minutes                                             ||
||                                                                            ||
|| Process BAM file SRR1171956.bam...                                         ||
||    Paired-end reads are included.                                          ||
||    Assign fragments (read pairs) to features...                            ||
||                                                                            ||
||    WARNING: reads from the same pair were found not adjacent to each       ||
||             other in the input (due to read sorting by location or         ||
||             reporting of multi-mapping read pairs).                        ||
||                                                                            ||
||    Read re-ordering is performed.                                          ||
||                                                                            ||
||    Total fragments : 6080188                                               ||
||    Successfully assigned fragments : 2742575 (45.1%)                       ||
||    Running time : 0.43 minutes                                             ||
||                                                                            ||
|| Process BAM file SRR1171957.bam...                                         ||
||    Paired-end reads are included.                                          ||
||    Assign fragments (read pairs) to features...                            ||
||                                                                            ||
||    WARNING: reads from the same pair were found not adjacent to each       ||
||             other in the input (due to read sorting by location or         ||
||             reporting of multi-mapping read pairs).                        ||
||                                                                            ||
||    Read re-ordering is performed.                                          ||
||                                                                            ||
||    Total fragments : 6882517                                               ||
||    Successfully assigned fragments : 3405295 (49.5%)                       ||
||    Running time : 0.80 minutes                                             ||
||                                                                            ||
|| Process BAM file SRR1171959.bam...                                         ||
||    Paired-end reads are included.                                          ||
||    Assign fragments (read pairs) to features...                            ||
||                                                                            ||
||    WARNING: reads from the same pair were found not adjacent to each       ||
||             other in the input (due to read sorting by location or         ||
||             reporting of multi-mapping read pairs).                        ||
||                                                                            ||
||    Read re-ordering is performed.                                          ||
||                                                                            ||
||    Total fragments : 14956242                                              ||
||    Successfully assigned fragments : 8144049 (54.5%)                       ||
||    Running time : 1.40 minutes                                             ||
||                                                                            ||
|| Process BAM file SRR1171970.bam...                                         ||
||    Paired-end reads are included.                                          ||
||    Assign fragments (read pairs) to features...                            ||
||                                                                            ||
||    WARNING: reads from the same pair were found not adjacent to each       ||
||             other in the input (due to read sorting by location or         ||
||             reporting of multi-mapping read pairs).                        ||
||                                                                            ||
||    Read re-ordering is performed.                                          ||
||                                                                            ||
||    Total fragments : 10972343                                              ||
||    Successfully assigned fragments : 6069165 (55.3%)                       ||
||    Running time : 0.61 minutes                                             ||
||                                                                            ||
|| Process BAM file SRR1171971.bam...                                         ||
||    Paired-end reads are included.                                          ||
||    Assign fragments (read pairs) to features...                            ||
||                                                                            ||
||    WARNING: reads from the same pair were found not adjacent to each       ||
||             other in the input (due to read sorting by location or         ||
||             reporting of multi-mapping read pairs).                        ||
||                                                                            ||
||    Read re-ordering is performed.                                          ||
||                                                                            ||
||    Total fragments : 10476387                                              ||
||    Successfully assigned fragments : 6095893 (58.2%)                       ||
||    Running time : 1.33 minutes                                             ||
||                                                                            ||
|| Process BAM file SRR1171972.bam...                                         ||
||    Paired-end reads are included.                                          ||
||    Assign fragments (read pairs) to features...                            ||
||                                                                            ||
||    WARNING: reads from the same pair were found not adjacent to each       ||
||             other in the input (due to read sorting by location or         ||
||             reporting of multi-mapping read pairs).                        ||
||                                                                            ||
||    Read re-ordering is performed.                                          ||
||                                                                            ||
||    Total fragments : 15971902                                              ||
||    Successfully assigned fragments : 8802730 (55.1%)                       ||
||    Running time : 0.90 minutes                                             ||
||                                                                            ||
|| Process BAM file SRR1171973.bam...                                         ||
||    Paired-end reads are included.                                          ||
||    Assign fragments (read pairs) to features...                            ||
||                                                                            ||
||    WARNING: reads from the same pair were found not adjacent to each       ||
||             other in the input (due to read sorting by location or         ||
||             reporting of multi-mapping read pairs).                        ||
||                                                                            ||
||    Read re-ordering is performed.                                          ||
||                                                                            ||
||    Total fragments : 9439474                                               ||
||    Successfully assigned fragments : 5152866 (54.6%)                       ||
||    Running time : 0.96 minutes                                             ||
||                                                                            ||
|| Process BAM file SRR1171974.bam...                                         ||
||    Paired-end reads are included.                                          ||
||    Assign fragments (read pairs) to features...                            ||
||                                                                            ||
||    WARNING: reads from the same pair were found not adjacent to each       ||
||             other in the input (due to read sorting by location or         ||
||             reporting of multi-mapping read pairs).                        ||
||                                                                            ||
||    Read re-ordering is performed.                                          ||
||                                                                            ||
||    Total fragments : 12044734                                              ||
||    Successfully assigned fragments : 5340445 (44.3%)                       ||
||    Running time : 1.15 minutes                                             ||
||                                                                            ||
|| Process BAM file SRR1171975.bam...                                         ||
||    Paired-end reads are included.                                          ||
||    Assign fragments (read pairs) to features...                            ||
||                                                                            ||
||    WARNING: reads from the same pair were found not adjacent to each       ||
||             other in the input (due to read sorting by location or         ||
||             reporting of multi-mapping read pairs).                        ||
||                                                                            ||
||    Read re-ordering is performed.                                          ||
||                                                                            ||
||    Total fragments : 16570044                                              ||
||    Successfully assigned fragments : 4211154 (25.4%)                       ||
||    Running time : 1.48 minutes                                             ||
||                                                                            ||
|| Process BAM file SRR1171977.bam...                                         ||
||    Paired-end reads are included.                                          ||
||    Assign fragments (read pairs) to features...                            ||
||                                                                            ||
||    WARNING: reads from the same pair were found not adjacent to each       ||
||             other in the input (due to read sorting by location or         ||
||             reporting of multi-mapping read pairs).                        ||
||                                                                            ||
||    Read re-ordering is performed.                                          ||
||                                                                            ||
||    Total fragments : 11861354                                              ||
||    Successfully assigned fragments : 5135385 (43.3%)                       ||
||    Running time : 1.06 minutes                                             ||
||                                                                            ||
||                         Read assignment finished.                          ||
||                                                                            ||
|| Summary of counting results can be found in file "counts_sm.txt"           ||
||                                                                            ||
\\===================== http://subread.sourceforge.net/ ======================//

